@startuml
title Kubernetes Cluster - System Context

skinparam {
  shadowing false
  arrowFontSize 10
  defaultTextAlignment center
  wrapWidth 200
  maxMessageSize 100
  PackageBorderColor<<group>> #cccccc
  PackageFontColor<<group>> #cccccc
}
hide stereotype
left to right direction

skinparam rectangle<<2>> {
  BackgroundColor #1168bd
  FontColor #ffffff
  BorderColor #0b4884
  roundCorner 20
}
skinparam person<<1>> {
  BackgroundColor #08427b
  FontColor #ffffff
  BorderColor #052e56
}

person "==User\n<size:10>[Person]</size>" <<1>> as 1
rectangle "==Kubernetes Cluster\n<size:10>[Software System]</size>\n\nEKS cluster" <<2>> as 2

1 .[#707070,thickness=2].> 2 : "Uses"
@enduml